{
  "development": {
    "username": "postgres",
    "password": "root",
    "database": "inventory_development",
    "host": "127.0.0.1",
    "dialect": "postgres"
  },
  "test": {
    "username": "postgres",
    "password": "admin",
    "database": "inventory_test",
    "host": "127.0.0.1",
    "dialect": "postgres"
  },
  "production": {
    "username": "postgres",
    "password": "admin",
    "database": "inventory_production",
    "host": "127.0.0.1",
    "dialect": "postgres"
  }
}
